id,first_name,last_name,email,gender,country
1,Jacklyn,Harriott,jharriott0@mtv.com,Female,Malawi
2,Dominick,Phizackerly,dphizackerly1@ox.ac.uk,Male,Philippines
3,Wash,Casper,wcasper2@mtv.com,Male,Finland
4,Cary,Kelcher,ckelcher3@freewebs.com,Male,Cambodia
5,Winifield,Stickins,wstickins4@xing.com,Male,Angola
6,Sheilah,Elby,selby5@si.edu,Female,Macedonia
7,Karney,Mallalieu,kmallalieu6@alexa.com,Male,Indonesia
8,Maximilien,Winward,mwinward7@wordpress.com,Male,Nigeria
9,Arnie,Gracewood,agracewood8@constantcontact.com,Male,Canada
10,Tyrus,Hildred,thildred9@hao123.com,Male,Sweden
11,Morissa,McCullogh,mmccullogha@wikia.com,Female,Colombia
12,Yalonda,Mattioli,ymattiolib@weebly.com,Female,Chile
13,Ruddie,Petrasch,rpetraschc@w3.org,Male,China
14,Hedda,Capponer,hcapponerd@ihg.com,Female,China
15,Ilyse,Damiata,idamiatae@house.gov,Female,China
16,Hurley,Van Salzberger,hvansalzbergerf@intel.com,Male,Mexico
17,Travis,Haggerty,thaggertyg@weebly.com,Male,Botswana
18,Cilka,Ismay,cismayh@princeton.edu,Female,China
19,Seward,Stairmand,sstairmandi@mail.ru,Male,Sri Lanka
20,Brig,Weightman,bweightmanj@netlog.com,Male,Sweden
21,Grantham,Fluin,gfluink@sun.com,Male,Argentina
22,Isobel,Rubinsaft,irubinsaftl@bbc.co.uk,Female,China
23,Cary,Shucksmith,cshucksmithm@cpanel.net,Male,China
24,Joni,Blackmuir,jblackmuirn@yahoo.co.jp,Female,Russia
25,Ervin,Hurndall,ehurndallo@miibeian.gov.cn,Male,United States
26,Sarajane,Ugolotti,sugolottip@arstechnica.com,Female,China
27,Evy,Bere,ebereq@goo.gl,Female,China
28,Alfi,Folliss,afollissr@nydailynews.com,Female,Samoa
29,Vera,Hows,vhowss@prweb.com,Female,Albania
30,Jeane,Anderbrugge,janderbrugget@devhub.com,Female,Portugal
31,Grannie,Mahon,gmahonu@house.gov,Male,China
32,Lexy,Tindley,ltindleyv@amazonaws.com,Female,Russia
33,Bartolomeo,Robion,brobionw@edublogs.org,Male,Honduras
34,Morgana,Fulker,mfulkerx@pinterest.com,Female,Poland
35,Herold,Zoppie,hzoppiey@bizjournals.com,Male,Chile
36,Philip,Gracey,pgraceyz@macromedia.com,Male,China
37,Queenie,Petruska,qpetruska10@wordpress.com,Female,Nigeria
38,Hadley,Hansana,hhansana11@1688.com,Male,Nigeria
39,Arielle,Reef,areef12@wiley.com,Female,Mongolia
40,Isabel,MacAvaddy,imacavaddy13@un.org,Female,Philippines
41,Jacinta,Coultass,jcoultass14@cdc.gov,Female,Indonesia
42,Joice,Nathan,jnathan15@creativecommons.org,Female,Canada
43,Alethea,Freckingham,afreckingham16@gmpg.org,Female,China
44,Olivie,Searston,osearston17@spiegel.de,Female,China
45,Raquela,Braunston,rbraunston18@oaic.gov.au,Female,Japan
46,Clo,Ozanne,cozanne19@fastcompany.com,Female,Portugal
47,Wendall,Ketteman,wketteman1a@abc.net.au,Male,Suriname
48,Maximilian,MacNeilly,mmacneilly1b@state.gov,Male,Indonesia
49,Gail,Standall,gstandall1c@cyberchimps.com,Male,Iraq
50,Chuck,Colgan,ccolgan1d@ycombinator.com,Male,Indonesia
51,Jaye,Luty,jluty1e@nifty.com,Male,Brazil
52,Flin,Bartot,fbartot1f@addthis.com,Male,Russia
53,Israel,Abilowitz,iabilowitz1g@flavors.me,Male,Philippines
54,Sunshine,Skalls,sskalls1h@about.me,Female,Thailand
55,Urbain,Pallatina,upallatina1i@diigo.com,Male,China
56,Mindy,Lyddon,mlyddon1j@ucla.edu,Female,Honduras
57,La verne,Didball,ldidball1k@issuu.com,Female,Indonesia
58,Devonne,Langton,dlangton1l@symantec.com,Female,Honduras
59,Esra,Sphinxe,esphinxe1m@cargocollective.com,Male,Lithuania
60,Rich,Jaffrey,rjaffrey1n@twitpic.com,Male,Indonesia
61,Eddie,Banbrick,ebanbrick1o@bloomberg.com,Female,Portugal
62,Talbot,Van der Velde,tvandervelde1p@macromedia.com,Male,Portugal
63,Saunders,Cowgill,scowgill1q@ustream.tv,Male,Armenia
64,Nichols,Forsythe,nforsythe1r@google.com.hk,Male,Russia
65,Otes,Malinowski,omalinowski1s@go.com,Male,Indonesia
66,Lolita,Traher,ltraher1t@mac.com,Female,Ivory Coast
67,Agosto,Swales,aswales1u@auda.org.au,Male,Czech Republic
68,Virgie,Weatherburn,vweatherburn1v@live.com,Female,Poland
69,Eveleen,Briatt,ebriatt1w@smugmug.com,Female,Belgium
70,Rene,Cockshott,rcockshott1x@friendfeed.com,Female,Indonesia
71,Antonie,Kinghorne,akinghorne1y@umich.edu,Female,China
72,Seumas,Gumby,sgumby1z@auda.org.au,Male,Russia
73,Sloan,Calkin,scalkin20@dailymail.co.uk,Male,Indonesia
74,Hetti,Westerman,hwesterman21@nationalgeographic.com,Female,Cuba
75,Gun,Garrard,ggarrard22@surveymonkey.com,Male,Sweden
76,Desmund,Allnutt,dallnutt23@jugem.jp,Male,Russia
77,Calley,Fonso,cfonso24@photobucket.com,Female,Brazil
78,Nils,Cronk,ncronk25@about.me,Male,China
79,Nikola,Tonkes,ntonkes26@scientificamerican.com,Male,China
80,Marjory,Files,mfiles27@furl.net,Female,Thailand
81,Gabie,Birkenhead,gbirkenhead28@wordpress.com,Male,Nigeria
82,Izaak,Koppke,ikoppke29@parallels.com,Male,China
83,Lynsey,Leavens,lleavens2a@howstuffworks.com,Female,Indonesia
84,Bonita,Blaschke,bblaschke2b@netscape.com,Female,Indonesia
85,Milicent,Farenden,mfarenden2c@t-online.de,Female,Indonesia
86,Vernon,Litster,vlitster2d@nih.gov,Male,China
87,Cass,Scrowson,cscrowson2e@sfgate.com,Female,Bosnia and Herzegovina
88,Kenyon,LLelweln,kllelweln2f@time.com,Male,Indonesia
89,Joella,Greaves,jgreaves2g@usa.gov,Female,Argentina
90,Jobi,Gerholz,jgerholz2h@blogs.com,Female,China
91,Lulita,Bloxham,lbloxham2i@cisco.com,Female,Portugal
92,Alexandros,Inggall,ainggall2j@jimdo.com,Male,France
93,Cate,Shiliton,cshiliton2k@list-manage.com,Female,Russia
94,Halli,Paynton,hpaynton2l@japanpost.jp,Female,Germany
95,Jeno,Van Saltsberg,jvansaltsberg2m@java.com,Male,Poland
96,Kane,Caherny,kcaherny2n@acquirethisname.com,Male,Canada
97,Isidoro,Carff,icarff2o@hp.com,Male,China
98,Idelle,Veelers,iveelers2p@twitpic.com,Female,Greece
99,Adriaens,Behr,abehr2q@live.com,Female,Bangladesh
100,Jock,Oxenbury,joxenbury2r@fema.gov,Male,China
101,Chalmers,Danick,cdanick2s@wunderground.com,Male,Ecuador
102,Antons,Crook,acrook2t@nationalgeographic.com,Male,Sweden
103,Zara,Conlaund,zconlaund2u@weather.com,Female,Mexico
104,Rozanne,Maund,rmaund2v@state.tx.us,Female,Argentina
105,Iago,Benezet,ibenezet2w@google.it,Male,China
106,Reagen,McQuilkin,rmcquilkin2x@flavors.me,Male,Sierra Leone
107,Frederic,Chesshyre,fchesshyre2y@deviantart.com,Male,Ecuador
108,Keen,Keppe,kkeppe2z@house.gov,Male,Philippines
109,Donnajean,Sartain,dsartain30@nbcnews.com,Female,Indonesia
110,Raquela,Chamberlen,rchamberlen31@seesaa.net,Female,Tunisia
111,Trina,Shortt,tshortt32@msn.com,Female,Tanzania
112,Anestassia,Windmill,awindmill33@amazonaws.com,Female,Kenya
113,Jarred,Mullally,jmullally34@oracle.com,Male,China
114,Herculie,Farnell,hfarnell35@spotify.com,Male,Russia
115,Krissie,Devericks,kdevericks36@stanford.edu,Female,Colombia
116,Foster,Domelaw,fdomelaw37@imgur.com,Male,Honduras
117,Willdon,Halladay,whalladay38@mozilla.org,Male,China
118,Skipton,Madison,smadison39@bing.com,Male,Philippines
119,Cathee,Leneve,cleneve3a@sakura.ne.jp,Female,Mongolia
120,Arlette,Heaps,aheaps3b@vk.com,Female,Albania
121,Eda,Skingley,eskingley3c@berkeley.edu,Female,Philippines
122,Thomas,Poundford,tpoundford3d@salon.com,Male,Philippines
123,Haze,Crunkhurn,hcrunkhurn3e@amazon.com,Male,Russia
124,Allis,Dunhill,adunhill3f@zimbio.com,Female,Japan
125,Timothy,Laxston,tlaxston3g@nifty.com,Male,Kenya
126,Suzette,Fawdrey,sfawdrey3h@bing.com,Female,Russia
127,Marcello,Jeram,mjeram3i@phoca.cz,Male,Mozambique
128,Parker,Birchenhead,pbirchenhead3j@tmall.com,Male,Sweden
129,Iormina,Paxman,ipaxman3k@miitbeian.gov.cn,Female,Pakistan
130,Lenette,Devil,ldevil3l@ucsd.edu,Female,Morocco
131,Selia,Goskar,sgoskar3m@ucoz.ru,Female,Argentina
132,Cathrine,McCaw,cmccaw3n@cisco.com,Female,China
133,Leandra,Christensen,lchristensen3o@apple.com,Female,Ireland
134,Linette,Londer,llonder3p@addtoany.com,Female,Indonesia
135,Charissa,Gayforth,cgayforth3q@google.es,Female,Colombia
136,Bondie,Pearse,bpearse3r@mayoclinic.com,Male,Japan
137,Laural,Colin,lcolin3s@vinaora.com,Female,China
138,Tawsha,Harling,tharling3t@paypal.com,Female,Panama
139,Patin,Hebden,phebden3u@weebly.com,Male,Portugal
140,Berky,Winkell,bwinkell3v@youtube.com,Male,Russia
141,Dionne,Arnopp,darnopp3w@bbb.org,Female,France
142,Francesco,Sydenham,fsydenham3x@dot.gov,Male,Russia
143,Anallese,Kibblewhite,akibblewhite3y@goo.gl,Female,United States
144,Ferne,Engeham,fengeham3z@mail.ru,Female,France
145,Gray,Muncie,gmuncie40@census.gov,Female,Russia
146,Adrian,Twopenny,atwopenny41@twitpic.com,Male,China
147,Christy,Trillo,ctrillo42@t.co,Female,Japan
148,Lynde,Perrott,lperrott43@ucla.edu,Female,Burkina Faso
149,Quent,Godspeede,qgodspeede44@mozilla.com,Male,Finland
150,Mariya,Syddie,msyddie45@paginegialle.it,Female,Albania
151,Isacco,Franks,ifranks46@ameblo.jp,Male,Poland
152,Edna,Rockcliff,erockcliff47@github.com,Female,Kazakhstan
153,Brian,Costard,bcostard48@chicagotribune.com,Male,Syria
154,Carolyn,Stang-Gjertsen,cstanggjertsen49@narod.ru,Female,Croatia
155,Hieronymus,Sealove,hsealove4a@technorati.com,Male,France
156,Dana,Pyott,dpyott4b@deliciousdays.com,Male,Poland
157,Ami,Paten,apaten4c@dmoz.org,Female,Yemen
158,Conway,La Torre,clatorre4d@goo.ne.jp,Male,China
159,Abdul,Rapier,arapier4e@google.com.au,Male,Honduras
160,Katherine,Taggerty,ktaggerty4f@mozilla.com,Female,Thailand
161,Julio,O'Mohun,jomohun4g@4shared.com,Male,Brazil
162,Kort,Coll,kcoll4h@linkedin.com,Male,China
163,Kaycee,Tancock,ktancock4i@bigcartel.com,Female,Indonesia
164,Arlen,Blaase,ablaase4j@newsvine.com,Female,Greece
165,Aubrie,Brydell,abrydell4k@amazon.co.jp,Female,Indonesia
166,Norrie,Rosander,nrosander4l@skype.com,Female,Poland
167,Avigdor,O'Luney,aoluney4m@4shared.com,Male,Philippines
168,Connor,Willwood,cwillwood4n@posterous.com,Male,Argentina
169,Quent,Ivanishin,qivanishin4o@si.edu,Male,Kazakhstan
170,Marjie,Engelbrecht,mengelbrecht4p@house.gov,Female,Lithuania
171,Kassey,Tribell,ktribell4q@webnode.com,Female,China
172,Lacee,Twinbrow,ltwinbrow4r@macromedia.com,Female,Chad
173,Tomasina,Leopold,tleopold4s@tripod.com,Female,China
174,Krystyna,Coch,kcoch4t@yellowpages.com,Female,Russia
175,Cos,Chatburn,cchatburn4u@bigcartel.com,Male,Philippines
176,Maiga,Kezar,mkezar4v@npr.org,Female,China
177,Gordan,Eastope,geastope4w@deliciousdays.com,Male,Cuba
178,Karrah,Frantsev,kfrantsev4x@is.gd,Female,Portugal
179,Ezekiel,Pitfield,epitfield4y@mtv.com,Male,Hong Kong
180,Holly,Matusovsky,hmatusovsky4z@ihg.com,Female,Ivory Coast
181,Randa,Danson,rdanson50@etsy.com,Female,Indonesia
182,Estevan,Cosgreave,ecosgreave51@guardian.co.uk,Male,Indonesia
183,Rollo,Bareham,rbareham52@un.org,Male,China
184,Merrel,Meldon,mmeldon53@opera.com,Male,Portugal
185,Carolyn,Larciere,clarciere54@noaa.gov,Female,China
186,Coleen,Morter,cmorter55@taobao.com,Female,Poland
187,Kass,Dounbare,kdounbare56@weebly.com,Female,Iran
188,Artus,Clatworthy,aclatworthy57@canalblog.com,Male,China
189,Mady,Bruckshaw,mbruckshaw58@netlog.com,Female,Indonesia
190,Reuven,Varley,rvarley59@edublogs.org,Male,Indonesia
191,Leandra,Wallwood,lwallwood5a@ucoz.ru,Female,China
192,Thaxter,Greg,tgreg5b@usnews.com,Male,Philippines
193,Kerianne,Raselles,kraselles5c@yahoo.co.jp,Female,Poland
194,Noelani,Jarman,njarman5d@w3.org,Female,China
195,Anthony,Nann,anann5e@geocities.com,Male,Germany
196,Stacee,Hussy,shussy5f@ihg.com,Male,Japan
197,Orrin,Edmett,oedmett5g@barnesandnoble.com,Male,South Africa
198,Creight,Braden,cbraden5h@yahoo.co.jp,Male,Indonesia
199,Seymour,Leate,sleate5i@miibeian.gov.cn,Male,New Zealand
200,Sigfried,Iggalden,siggalden5j@engadget.com,Male,Nigeria
201,Sumner,Genthner,sgenthner5k@dell.com,Male,Indonesia
202,Cherida,Eakly,ceakly5l@booking.com,Female,Thailand
203,Nikolos,Jago,njago5m@blogger.com,Male,Indonesia
204,Reginald,Negro,rnegro5n@printfriendly.com,Male,Jordan
205,Jedidiah,Birdseye,jbirdseye5o@jugem.jp,Male,Russia
206,Germaine,Danahar,gdanahar5p@globo.com,Male,Sweden
207,Arthur,Aicken,aaicken5q@imageshack.us,Male,China
208,Charyl,Woof,cwoof5r@mashable.com,Female,Nicaragua
209,Romain,Nurden,rnurden5s@gov.uk,Male,Colombia
210,Kellia,Ilive,kilive5t@liveinternet.ru,Female,United States
211,Tan,Coots,tcoots5u@forbes.com,Male,Czech Republic
212,Bernard,Rawlence,brawlence5v@ted.com,Male,Armenia
213,Desmund,Rattenberie,drattenberie5w@mlb.com,Male,Colombia
214,Shoshanna,Camin,scamin5x@prlog.org,Female,France
215,Korry,D'Ambrosi,kdambrosi5y@ox.ac.uk,Female,United States
216,Domenico,Bynold,dbynold5z@woothemes.com,Male,Russia
217,Jobye,Caulwell,jcaulwell60@senate.gov,Female,Belgium
218,Dimitry,Dobing,ddobing61@google.co.uk,Male,France
219,Amargo,Goor,agoor62@infoseek.co.jp,Female,China
220,Kaela,Reen,kreen63@github.io,Female,Poland
221,Quinn,Tregien,qtregien64@alexa.com,Male,Sweden
222,Gian,Heinsius,gheinsius65@seesaa.net,Male,Indonesia
223,Loutitia,Murt,lmurt66@accuweather.com,Female,Philippines
224,Karena,Muccino,kmuccino67@yandex.ru,Female,Indonesia
225,Chen,Zealey,czealey68@unblog.fr,Male,Togo
226,Urbano,Inchcomb,uinchcomb69@desdev.cn,Male,Canada
227,Barbabra,Dougherty,bdougherty6a@technorati.com,Female,China
228,Sydel,Ashby,sashby6b@ustream.tv,Female,China
229,Ada,Gittis,agittis6c@etsy.com,Female,Denmark
230,Peterus,Gallally,pgallally6d@apache.org,Male,Indonesia
231,Kain,Server,kserver6e@163.com,Male,Vietnam
232,Harley,Nutter,hnutter6f@uol.com.br,Female,Portugal
233,Averill,Sahnow,asahnow6g@yolasite.com,Male,Indonesia
234,Leela,Deegin,ldeegin6h@over-blog.com,Female,Indonesia
235,Chrisy,Kleinstern,ckleinstern6i@yellowpages.com,Male,Argentina
236,Brendan,Sawrey,bsawrey6j@vkontakte.ru,Male,Iran
237,Hettie,Cashman,hcashman6k@dailymotion.com,Female,Colombia
238,Emilie,Shickle,eshickle6l@ezinearticles.com,Female,Argentina
239,Dwayne,Booth,dbooth6m@1688.com,Male,Argentina
240,Flore,Binyon,fbinyon6n@xing.com,Female,Philippines
241,Marcel,Bauser,mbauser6o@barnesandnoble.com,Male,China
242,Joel,Mott,jmott6p@fotki.com,Male,Czech Republic
243,Dyan,Ferrari,dferrari6q@arizona.edu,Female,Indonesia
244,Bob,Blose,bblose6r@shop-pro.jp,Male,China
245,Lita,Buessen,lbuessen6s@blog.com,Female,United States
246,Demeter,Dowle,ddowle6t@slideshare.net,Female,Russia
247,Chantal,Danzig,cdanzig6u@businessinsider.com,Female,Indonesia
248,Vito,Sigg,vsigg6v@businessinsider.com,Male,Greece
249,Craig,Tours,ctours6w@hibu.com,Male,Indonesia
250,Malvina,Klebes,mklebes6x@dailymail.co.uk,Female,China
251,Heywood,Scroggins,hscroggins6y@icio.us,Male,Brazil
252,Papagena,Dempsey,pdempsey6z@shutterfly.com,Female,China
253,Deni,Sawyer,dsawyer70@yellowbook.com,Female,United States
254,Kerk,Bosquet,kbosquet71@stanford.edu,Male,Ecuador
255,Esdras,Garard,egarard72@mayoclinic.com,Male,Sweden
256,Frank,Whisby,fwhisby73@mayoclinic.com,Male,Colombia
257,Irita,Pedrocchi,ipedrocchi74@blogger.com,Female,China
258,Ernst,Blaxeland,eblaxeland75@elpais.com,Male,China
259,Judie,Hyam,jhyam76@macromedia.com,Female,Western Sahara
260,Adelind,Giamelli,agiamelli77@ifeng.com,Female,Indonesia
261,Holt,Jancic,hjancic78@usnews.com,Male,China
262,Thomasa,Partrick,tpartrick79@earthlink.net,Female,China
263,Ella,Serris,eserris7a@tinypic.com,Female,Nigeria
264,Esmaria,Flute,eflute7b@xrea.com,Female,Thailand
265,Marleen,Dowdeswell,mdowdeswell7c@symantec.com,Female,Indonesia
266,Kelley,Worswick,kworswick7d@ebay.co.uk,Male,Albania
267,Eada,Tabbernor,etabbernor7e@dailymail.co.uk,Female,Russia
268,Atlante,Abbett,aabbett7f@dailymail.co.uk,Female,Poland
269,Linnie,Bome,lbome7g@cmu.edu,Female,Indonesia
270,Clea,Goldine,cgoldine7h@abc.net.au,Female,China
271,Kelsy,Huguenet,khuguenet7i@uiuc.edu,Female,Argentina
272,Fax,Corah,fcorah7j@huffingtonpost.com,Male,Kyrgyzstan
273,Katrine,Fozard,kfozard7k@about.me,Female,China
274,Gaspar,Blagden,gblagden7l@baidu.com,Male,China
275,Elke,Spread,espread7m@admin.ch,Female,Portugal
276,Ingamar,Marmion,imarmion7n@infoseek.co.jp,Male,Czech Republic
277,Marlane,Tailour,mtailour7o@zimbio.com,Female,France
278,Gratiana,Verman,gverman7p@vimeo.com,Female,Brazil
279,Gran,Kirsch,gkirsch7q@artisteer.com,Male,Lithuania
280,Camille,Talman,ctalman7r@google.es,Female,Canada
281,Hamnet,Arndtsen,harndtsen7s@hp.com,Male,China
282,Feodor,Dehmel,fdehmel7t@geocities.jp,Male,Brazil
283,Anabal,Dowker,adowker7u@gravatar.com,Female,France
284,Bondon,Footer,bfooter7v@github.io,Male,China
285,Horatius,Frissell,hfrissell7w@google.cn,Male,China
286,Ossie,Stoaks,ostoaks7x@nhs.uk,Male,Malaysia
287,Brice,Dirkin,bdirkin7y@soup.io,Male,Poland
288,Matthieu,Filippucci,mfilippucci7z@example.com,Male,China
289,Umeko,Hellmore,uhellmore80@linkedin.com,Female,Bosnia and Herzegovina
290,Alleyn,Stede,astede81@360.cn,Male,Pakistan
291,Omero,Cossar,ocossar82@amazon.de,Male,Pakistan
292,Flory,Roncelli,froncelli83@home.pl,Male,China
293,Fred,Lindley,flindley84@ocn.ne.jp,Male,Sweden
294,Jordain,Pierrepont,jpierrepont85@indiatimes.com,Female,Lebanon
295,Rona,Widger,rwidger86@surveymonkey.com,Female,Sweden
296,Sher,Elkin,selkin87@princeton.edu,Female,Philippines
297,Tadd,Sappy,tsappy88@businessweek.com,Male,Mexico
298,Damaris,Briand,dbriand89@pbs.org,Female,Croatia
299,Liana,Van Cassel,lvancassel8a@ft.com,Female,Indonesia
300,Paulita,Culpen,pculpen8b@tripod.com,Female,Philippines
301,Anetta,Plank,aplank8c@prlog.org,Female,Canada
302,Keriann,Michell,kmichell8d@yandex.ru,Female,France
303,Isis,Sillis,isillis8e@friendfeed.com,Female,Canada
304,Leicester,Merioth,lmerioth8f@samsung.com,Male,China
305,Loydie,Derycot,lderycot8g@amazon.de,Male,Morocco
306,Alisa,Huws,ahuws8h@timesonline.co.uk,Female,France
307,Idette,O'Donohue,iodonohue8i@vinaora.com,Female,Brazil
308,Abram,Clappson,aclappson8j@cdbaby.com,Male,China
309,Tobias,Searby,tsearby8k@amazon.co.jp,Male,China
310,Adlai,Sleightholm,asleightholm8l@dot.gov,Male,Brazil
311,Rudiger,Dunnion,rdunnion8m@goo.ne.jp,Male,China
312,Querida,Copestick,qcopestick8n@google.co.jp,Female,Malaysia
313,Gladys,Gustus,ggustus8o@bing.com,Female,France
314,Shirlene,Kenwright,skenwright8p@comsenz.com,Female,Brazil
315,Jocelin,Boas,jboas8q@tripadvisor.com,Female,Poland
316,Karina,Pendry,kpendry8r@nymag.com,Female,Mozambique
317,Debbie,Marciek,dmarciek8s@nih.gov,Female,Portugal
318,Carlita,Trim,ctrim8t@tumblr.com,Female,Hungary
319,Kalie,Haddington,khaddington8u@wufoo.com,Female,Indonesia
320,Whitney,Sprankling,wsprankling8v@yale.edu,Male,Canada
321,Herculie,Tomaskov,htomaskov8w@mayoclinic.com,Male,China
322,Jakob,Caldwall,jcaldwall8x@360.cn,Male,Russia
323,Arielle,Segge,asegge8y@seattletimes.com,Female,Russia
324,Sibel,Cundey,scundey8z@alexa.com,Female,Russia
325,Feodora,Piolli,fpiolli90@usnews.com,Female,Brazil
326,Adriena,Brice,abrice91@usda.gov,Female,Poland
327,Thibaut,Bruniges,tbruniges92@netscape.com,Male,Ukraine
328,Kristine,Spadazzi,kspadazzi93@harvard.edu,Female,Russia
329,Dacie,Roblou,droblou94@merriam-webster.com,Female,Slovenia
330,Adham,Bleas,ableas95@java.com,Male,Canada
331,Dylan,Eminson,deminson96@ehow.com,Male,Philippines
332,Lizette,Langmuir,llangmuir97@mysql.com,Female,Greece
333,Tiertza,Jerche,tjerche98@wiley.com,Female,China
334,Giuseppe,O'Dowgaine,godowgaine99@desdev.cn,Male,Philippines
335,Fulvia,Lannin,flannin9a@de.vu,Female,Mexico
336,Ambrosius,Abrahams,aabrahams9b@netlog.com,Male,Brazil
337,Francis,Gammage,fgammage9c@plala.or.jp,Male,Ukraine
338,Sherilyn,Pittoli,spittoli9d@vistaprint.com,Female,Comoros
339,Enrica,Blindermann,eblindermann9e@nsw.gov.au,Female,Philippines
340,Nissy,Leedal,nleedal9f@shareasale.com,Female,Thailand
341,Bridgette,Moehler,bmoehler9g@wired.com,Female,Estonia
342,Galina,Rolstone,grolstone9h@nsw.gov.au,Female,United States
343,Mikol,Heinert,mheinert9i@tmall.com,Male,China
344,Nicoli,Axton,naxton9j@ebay.com,Female,Philippines
345,Maddalena,Dumphrey,mdumphrey9k@acquirethisname.com,Female,Czech Republic
346,Rosette,Tancock,rtancock9l@newsvine.com,Female,Russia
347,Dannie,Boyde,dboyde9m@yelp.com,Male,Djibouti
348,Legra,Blayd,lblayd9n@acquirethisname.com,Female,Canada
349,Ashley,De La Coste,adelacoste9o@de.vu,Male,Canada
350,Bartlett,Withnall,bwithnall9p@narod.ru,Male,Indonesia
351,Layton,Costerd,lcosterd9q@bloglovin.com,Male,Indonesia
352,Gottfried,Heersema,gheersema9r@amazon.com,Male,Poland
353,Simone,Monk,smonk9s@spotify.com,Male,Kyrgyzstan
354,Bobina,Davers,bdavers9t@goodreads.com,Female,United States
355,Isidore,Deathridge,ideathridge9u@nydailynews.com,Male,Philippines
356,Melisent,Rivilis,mrivilis9v@mapquest.com,Female,Iran
357,Ephrayim,Oldman,eoldman9w@tripadvisor.com,Male,Poland
358,Durant,Seif,dseif9x@g.co,Male,Portugal
359,Manon,Faughey,mfaughey9y@stanford.edu,Female,Russia
360,Kelsi,Oakwood,koakwood9z@huffingtonpost.com,Female,China
361,Lisa,Carbery,lcarberya0@boston.com,Female,Philippines
362,Armstrong,Meharry,ameharrya1@163.com,Male,China
363,Kevin,McFetridge,kmcfetridgea2@posterous.com,Male,Poland
364,Oby,Gonnard,ogonnarda3@123-reg.co.uk,Male,China
365,Rockey,Grimmett,rgrimmetta4@nih.gov,Male,Indonesia
366,Karilynn,Ipsly,kipslya5@nasa.gov,Female,China
367,Egon,Colleck,ecollecka6@auda.org.au,Male,China
368,Ertha,Chadbourne,echadbournea7@seattletimes.com,Female,China
369,Jessamine,Gaymar,jgaymara8@xing.com,Female,North Korea
370,Vaughan,Mathelon,vmathelona9@wikispaces.com,Male,Yemen
371,Welby,Balden,wbaldenaa@hexun.com,Male,Mexico
372,Betsy,Polkinhorn,bpolkinhornab@shutterfly.com,Female,Poland
373,Delmar,Feye,dfeyeac@shop-pro.jp,Male,Russia
374,Rafaela,Braban,rbrabanad@histats.com,Female,Indonesia
375,Kareem,Ollin,kollinae@tuttocitta.it,Male,United States
376,Yancy,Keyes,ykeyesaf@livejournal.com,Male,Myanmar
377,Babara,McPhelimey,bmcphelimeyag@xrea.com,Female,Bolivia
378,Nadya,Cleatherow,ncleatherowah@ask.com,Female,Thailand
379,Garland,Goodbur,ggoodburai@netscape.com,Female,China
380,Oona,Pohl,opohlaj@ted.com,Female,Indonesia
381,Amerigo,Lapree,alapreeak@usa.gov,Male,Brazil
382,Durand,Meffan,dmeffanal@dell.com,Male,Ukraine
383,Lyon,Jobson,ljobsonam@mapy.cz,Male,China
384,Dreddy,Fowlds,dfowldsan@deliciousdays.com,Female,Netherlands
385,Kate,Daly,kdalyao@opera.com,Female,Philippines
386,Georges,Irvine,girvineap@wix.com,Male,Sweden
387,Arman,Bohlje,abohljeaq@admin.ch,Male,Brazil
388,Fernando,Canedo,fcanedoar@telegraph.co.uk,Male,Indonesia
389,Lissie,Hartland,lhartlandas@comsenz.com,Female,China
390,Myrah,Lawrenceson,mlawrencesonat@networkadvertising.org,Female,Poland
391,Janina,Bowring,jbowringau@nba.com,Female,Russia
392,Shaun,Askwith,saskwithav@salon.com,Male,Russia
393,Fonsie,Clever,fcleveraw@va.gov,Male,China
394,Stephana,Skyme,sskymeax@tripod.com,Female,Uzbekistan
395,Dre,MacCahee,dmaccaheeay@joomla.org,Female,Myanmar
396,Kala,Parslow,kparslowaz@vinaora.com,Female,Mexico
397,Mei,Eastcott,meastcottb0@earthlink.net,Female,Canada
398,Kaiser,Dorning,kdorningb1@plala.or.jp,Male,Pakistan
399,Eb,Simoncelli,esimoncellib2@mail.ru,Male,Malaysia
400,Emery,McFade,emcfadeb3@t-online.de,Male,Yemen
401,Delainey,Croyser,dcroyserb4@columbia.edu,Male,Thailand
402,Eunice,Simony,esimonyb5@washingtonpost.com,Female,France
403,Florian,Hemmingway,fhemmingwayb6@google.cn,Male,China
404,Christi,Rawes,crawesb7@amazon.co.uk,Female,Serbia
405,Aharon,Batkin,abatkinb8@symantec.com,Male,Poland
406,Barbey,Paskell,bpaskellb9@parallels.com,Female,North Korea
407,Nelle,Schleicher,nschleicherba@tripod.com,Female,Nicaragua
408,Karie,Kincaid,kkincaidbb@feedburner.com,Female,Chad
409,Isaiah,Jodrellec,ijodrellecbc@seattletimes.com,Male,Indonesia
410,Bebe,Pollett,bpollettbd@wikipedia.org,Female,Philippines
411,Ferdinand,Filipic,ffilipicbe@sourceforge.net,Male,Philippines
412,Geno,Bankhurst,gbankhurstbf@walmart.com,Male,Finland
413,Wilow,Key,wkeybg@unicef.org,Female,France
414,Burty,Ridler,bridlerbh@omniture.com,Male,Indonesia
415,Hamish,Kitchener,hkitchenerbi@oracle.com,Male,Canada
416,Serene,Debrett,sdebrettbj@diigo.com,Female,Azerbaijan
417,Barbaraanne,Wilkes,bwilkesbk@prweb.com,Female,Cyprus
418,Saunders,Millard,smillardbl@bizjournals.com,Male,China
419,Dorry,Simounet,dsimounetbm@house.gov,Female,China
420,Leontine,Brann,lbrannbn@senate.gov,Female,Albania
421,Josephine,Houndesome,jhoundesomebo@mediafire.com,Female,China
422,Vinnie,Scruby,vscrubybp@china.com.cn,Male,France
423,Wyndham,Polle,wpollebq@yellowbook.com,Male,Japan
424,Zack,Sibbons,zsibbonsbr@hibu.com,Male,Czech Republic
425,Frederigo,Eadmeades,feadmeadesbs@uol.com.br,Male,China
426,Nona,Skase,nskasebt@unblog.fr,Female,Czech Republic
427,Dur,Dorricott,ddorricottbu@thetimes.co.uk,Male,Ukraine
428,Shaylynn,Cardo,scardobv@ted.com,Female,China
429,Crystal,Casterot,ccasterotbw@cbc.ca,Female,Indonesia
430,Trevor,Gregoli,tgregolibx@seattletimes.com,Male,Sweden
431,Shanta,Mitchell,smitchellby@cmu.edu,Female,Dominican Republic
432,Regina,Dy,rdybz@meetup.com,Female,China
433,Duncan,Peyes,dpeyesc0@unicef.org,Male,China
434,Hollis,Gredden,hgreddenc1@altervista.org,Male,Ethiopia
435,Datha,Gowanlock,dgowanlockc2@homestead.com,Female,Japan
436,Cecilia,O'Dulchonta,codulchontac3@uiuc.edu,Female,Indonesia
437,Sholom,Ortell,sortellc4@vistaprint.com,Male,Guatemala
438,Agata,O'Brogane,aobroganec5@blogspot.com,Female,China
439,Aleksandr,Plomer,aplomerc6@umn.edu,Male,Indonesia
440,Jereme,Bourchier,jbourchierc7@slate.com,Male,Dominican Republic
441,Gustie,Mitro,gmitroc8@wikia.com,Female,United States
442,Arnuad,Lunt,aluntc9@china.com.cn,Male,Philippines
443,Lynna,Strutz,lstrutzca@imgur.com,Female,Nigeria
444,Rosalyn,Pack,rpackcb@telegraph.co.uk,Female,Kiribati
445,Abey,Notton,anottoncc@parallels.com,Male,Russia
446,Dredi,Rymill,drymillcd@who.int,Female,France
447,Fairfax,Camerana,fcameranace@tiny.cc,Male,Netherlands
448,Alanna,Dallman,adallmancf@bravesites.com,Female,Brazil
449,Natal,Showt,nshowtcg@whitehouse.gov,Male,China
450,Kimble,Kinsman,kkinsmanch@squarespace.com,Male,Colombia
451,Swen,Fuzzey,sfuzzeyci@apple.com,Male,Russia
452,Pansie,Saberton,psabertoncj@theglobeandmail.com,Female,Croatia
453,Lucias,Pettko,lpettkock@hp.com,Male,Belgium
454,Fernando,Abramamovh,fabramamovhcl@opera.com,Male,Poland
455,Marie-ann,MacFayden,mmacfaydencm@aol.com,Female,Latvia
456,Cherianne,Hynd,chyndcn@intel.com,Female,Poland
457,Gaylor,Flye,gflyeco@w3.org,Male,Mexico
458,Kaylyn,Larchier,klarchiercp@nydailynews.com,Female,Nigeria
459,Monique,Ducarne,mducarnecq@free.fr,Female,Canada
460,Gretna,Claisse,gclaissecr@ovh.net,Female,Colombia
461,Millicent,Lochet,mlochetcs@shinystat.com,Female,Colombia
462,Brooks,Parcall,bparcallct@bigcartel.com,Male,Portugal
463,Callida,Barendtsen,cbarendtsencu@pinterest.com,Female,Indonesia
464,Stillmann,Walsh,swalshcv@nsw.gov.au,Male,Ukraine
465,Selle,Redhole,sredholecw@infoseek.co.jp,Female,Peru
466,Perceval,Kipping,pkippingcx@apache.org,Male,South Korea
467,Marieann,Bloxholm,mbloxholmcy@networksolutions.com,Female,Honduras
468,Melony,Pizzie,mpizziecz@ocn.ne.jp,Female,China
469,Tod,Paschek,tpaschekd0@e-recht24.de,Male,China
470,Lock,Vearncombe,lvearncombed1@wp.com,Male,Syria
471,Candida,Dicken,cdickend2@alibaba.com,Female,Russia
472,Lulita,Duncklee,ldunckleed3@ftc.gov,Female,Tajikistan
473,Antonietta,Blayd,ablaydd4@fema.gov,Female,Ukraine
474,Mack,MacLleese,mmaclleesed5@sakura.ne.jp,Male,China
475,Essie,Westmorland,ewestmorlandd6@shop-pro.jp,Female,China
476,Claire,Alwen,calwend7@zimbio.com,Female,Japan
477,Farlie,Grunnill,fgrunnilld8@wikimedia.org,Male,Russia
478,Bald,Newark,bnewarkd9@cafepress.com,Male,Russia
479,Chrystal,Callery,ccalleryda@netscape.com,Female,Russia
480,Virginia,Farnsworth,vfarnsworthdb@admin.ch,Female,China
481,Emlynne,Signoret,esignoretdc@epa.gov,Female,Italy
482,Candra,Mounsey,cmounseydd@epa.gov,Female,China
483,Julissa,Calvey,jcalveyde@ftc.gov,Female,Brazil
484,Magdalena,Kier,mkierdf@123-reg.co.uk,Female,China
485,Phaidra,Jukes,pjukesdg@dyndns.org,Female,Indonesia
486,Kassie,Pink,kpinkdh@jalbum.net,Female,Sweden
487,Calhoun,Shoveller,cshovellerdi@fema.gov,Male,France
488,Northrup,Brogiotti,nbrogiottidj@pagesperso-orange.fr,Male,Indonesia
489,Preston,Sproston,psprostondk@hexun.com,Male,Brazil
490,Jackie,Gunther,jguntherdl@yale.edu,Male,Finland
491,Brantley,Bruckental,bbruckentaldm@furl.net,Male,Bolivia
492,Neddy,Synnott,nsynnottdn@patch.com,Male,Paraguay
493,Chrisy,Labba,clabbado@blogtalkradio.com,Male,China
494,Kerstin,Chattey,kchatteydp@ihg.com,Female,Myanmar
495,Guglielmo,Oliveras,goliverasdq@example.com,Male,Philippines
496,Teodorico,Wadge,twadgedr@si.edu,Male,China
497,Jacklin,Maly,jmalyds@newsvine.com,Female,Czech Republic
498,Deloris,Hudd,dhudddt@storify.com,Female,Philippines
499,Jakob,Lorkins,jlorkinsdu@sogou.com,Male,Papua New Guinea
500,Rufe,Kopje,rkopjedv@4shared.com,Male,China
501,Orland,Kochs,okochsdw@mysql.com,Male,Philippines
502,Lexis,Kearns,lkearnsdx@mozilla.org,Female,Indonesia
503,Nadia,O'Cahill,nocahilldy@dailymail.co.uk,Female,China
504,Gregory,Proudley,gproudleydz@uol.com.br,Male,Indonesia
505,Thorstein,Gandar,tgandare0@instagram.com,Male,Ukraine
506,Emery,Pietruszewicz,epietruszewicze1@blogspot.com,Male,Russia
507,Goddard,Frammingham,gframminghame2@cdc.gov,Male,China
508,Carmelita,Quiddihy,cquiddihye3@eventbrite.com,Female,Cameroon
509,Amelina,Lorek,aloreke4@desdev.cn,Female,Poland
510,Rahal,MacKellen,rmackellene5@statcounter.com,Female,Indonesia
511,Emmery,Maleck,emalecke6@123-reg.co.uk,Male,Brazil
512,Karalynn,Birdseye,kbirdseyee7@cafepress.com,Female,China
513,Burg,Jenking,bjenkinge8@github.io,Male,China
514,Monti,Yakuntsov,myakuntsove9@ustream.tv,Male,China
515,Rick,Blackborough,rblackboroughea@phpbb.com,Male,China
516,Katinka,Woodgate,kwoodgateeb@deviantart.com,Female,Brazil
517,Shaylyn,Lockie,slockieec@qq.com,Female,Portugal
518,Timmie,Kinsella,tkinsellaed@so-net.ne.jp,Female,Russia
519,Wendeline,Clappson,wclappsonee@sphinn.com,Female,Sweden
520,Jessi,Eveling,jevelingef@hugedomains.com,Female,Belarus
521,Jen,Carmont,jcarmonteg@hostgator.com,Female,Colombia
522,Tove,Styant,tstyanteh@ustream.tv,Female,Indonesia
523,Ozzie,Aikin,oaikinei@columbia.edu,Male,China
524,Marcel,Armell,marmellej@nyu.edu,Male,Malaysia
525,Chevy,McGuire,cmcguireek@xinhuanet.com,Male,Ukraine
526,Sanders,Lasslett,slasslettel@google.co.jp,Male,Chile
527,Sibbie,Stoeckle,sstoeckleem@loc.gov,Female,Indonesia
528,Natalya,McIntee,nmcinteeen@angelfire.com,Female,Philippines
529,Shanie,Faldoe,sfaldoeeo@oracle.com,Female,Venezuela
530,Simmonds,Sealey,ssealeyep@sbwire.com,Male,Brazil
531,Alfonso,Errington,aerringtoneq@walmart.com,Male,Croatia
532,Marnia,Ipsly,mipslyer@yahoo.co.jp,Female,Malta
533,Worthington,McDade,wmcdadees@seattletimes.com,Male,Argentina
534,Christin,Torricina,ctorricinaet@uol.com.br,Female,Russia
535,Ronna,Gittose,rgittoseeu@boston.com,Female,Latvia
536,Sarette,Brecon,sbreconev@elegantthemes.com,Female,Argentina
537,Hastings,Maudett,hmaudettew@stumbleupon.com,Male,Philippines
538,Herold,Pitceathly,hpitceathlyex@geocities.jp,Male,Philippines
539,Thom,Schapiro,tschapiroey@csmonitor.com,Male,United States
540,Gabby,Dowsing,gdowsingez@lulu.com,Male,Costa Rica
541,Conny,Mathivon,cmathivonf0@shutterfly.com,Female,Indonesia
542,Ingamar,Fedynski,ifedynskif1@wiley.com,Male,Egypt
543,Efrem,Haddacks,ehaddacksf2@wp.com,Male,Yemen
544,Owen,Loveman,olovemanf3@google.ru,Male,Philippines
545,Teddi,Gibling,tgiblingf4@google.ru,Female,Costa Rica
546,Tannie,Ellissen,tellissenf5@businessinsider.com,Male,China
547,Maris,Haythorne,mhaythornef6@spiegel.de,Female,China
548,Olin,Owtram,oowtramf7@google.pl,Male,China
549,Erica,Howison,ehowisonf8@si.edu,Female,Germany
550,Roseanne,Goodswen,rgoodswenf9@lulu.com,Female,Poland
551,Addi,Gorgler,agorglerfa@google.fr,Female,Brazil
552,Linn,Reaney,lreaneyfb@domainmarket.com,Female,Ukraine
553,Winne,Noell,wnoellfc@guardian.co.uk,Female,Philippines
554,Maiga,Tuckie,mtuckiefd@indiatimes.com,Female,China
555,Vannie,Dunbavin,vdunbavinfe@jugem.jp,Female,Brazil
556,Wittie,Alliban,wallibanff@reddit.com,Male,France
557,Rachele,Mingauld,rmingauldfg@soundcloud.com,Female,Russia
558,Celina,Benettolo,cbenettolofh@harvard.edu,Female,Albania
559,Normy,Hedditch,nhedditchfi@wufoo.com,Male,China
560,Marcos,Sherlaw,msherlawfj@nsw.gov.au,Male,Ukraine
561,Annmaria,Forster,aforsterfk@odnoklassniki.ru,Female,Argentina
562,Leah,Avramow,lavramowfl@smugmug.com,Female,Italy
563,Gabrielle,Maggiori,gmaggiorifm@unicef.org,Female,Costa Rica
564,Dino,Kelemen,dkelemenfn@soup.io,Male,Honduras
565,Marieann,Degue,mdeguefo@nasa.gov,Female,Indonesia
566,Shea,Champkins,schampkinsfp@list-manage.com,Male,Malaysia
567,Kimmi,Tutchell,ktutchellfq@bbc.co.uk,Female,Ireland
568,Prince,Ravillas,pravillasfr@smugmug.com,Male,Brazil
569,Oralie,Tessington,otessingtonfs@mysql.com,Female,Nigeria
570,Shaun,Schnitter,sschnitterft@wikimedia.org,Male,Russia
571,Gerome,Vinter,gvinterfu@phpbb.com,Male,Russia
572,Winifield,Walder,wwalderfv@networkadvertising.org,Male,Brazil
573,Giacopo,Larkby,glarkbyfw@princeton.edu,Male,China
574,Nataline,Crowther,ncrowtherfx@state.tx.us,Female,China
575,Sayer,Mannagh,smannaghfy@businesswire.com,Male,China
576,Megen,Timbs,mtimbsfz@dion.ne.jp,Female,Mali
577,Angil,Domanek,adomanekg0@csmonitor.com,Female,Brazil
578,Tate,Klicher,tklicherg1@friendfeed.com,Female,China
579,Isidore,Tregiddo,itregiddog2@devhub.com,Male,Dominican Republic
580,Broddie,Lowdham,blowdhamg3@ucla.edu,Male,Russia
581,Robbi,Dowley,rdowleyg4@cdbaby.com,Female,Malaysia
582,Halsy,Adolfsen,hadolfseng5@google.nl,Male,Czech Republic
583,Sherilyn,Shalcros,sshalcrosg6@163.com,Female,Afghanistan
584,Dyann,Custed,dcustedg7@walmart.com,Female,Kazakhstan
585,Galven,Shute,gshuteg8@de.vu,Male,Russia
586,Dorolice,Hayhurst,dhayhurstg9@g.co,Female,Kazakhstan
587,Sergio,Collie,scolliega@jigsy.com,Male,Serbia
588,Viviana,Ouldred,vouldredgb@yolasite.com,Female,Afghanistan
589,Ainsley,Deville,adevillegc@state.gov,Female,South Africa
590,Vite,Crannage,vcrannagegd@dagondesign.com,Male,Russia
591,Ron,Geertsen,rgeertsenge@mozilla.com,Male,Poland
592,Gilberto,Caldera,gcalderagf@ocn.ne.jp,Male,Vietnam
593,Annabelle,Heyward,aheywardgg@studiopress.com,Female,France
594,Adan,Haburne,ahaburnegh@xrea.com,Male,Japan
595,Bradley,Bawdon,bbawdongi@cbc.ca,Male,Indonesia
596,Kelcey,Hurlin,khurlingj@123-reg.co.uk,Female,China
597,Mack,Scading,mscadinggk@time.com,Male,Iran
598,Rubin,Elsmore,relsmoregl@bbb.org,Male,China
599,Jacob,Vasilevich,jvasilevichgm@over-blog.com,Male,China
600,Sadie,Elverston,selverstongn@bizjournals.com,Female,China
601,Madelaine,Riteley,mriteleygo@ezinearticles.com,Female,Peru
602,Remington,Zylbermann,rzylbermanngp@stumbleupon.com,Male,China
603,Gib,Harburtson,gharburtsongq@google.com.hk,Male,Indonesia
604,Max,Stradling,mstradlinggr@booking.com,Male,Brazil
605,Adria,Rohloff,arohloffgs@cornell.edu,Female,Serbia
606,Teddi,Tatters,ttattersgt@smugmug.com,Female,United States
607,Graehme,Kures,gkuresgu@blogs.com,Male,China
608,Julee,Huygen,jhuygengv@taobao.com,Female,Sudan
609,Gilli,McNickle,gmcnicklegw@gmpg.org,Female,Serbia
610,Horst,Dochon,hdochongx@flickr.com,Male,China
611,Buddie,Boltwood,bboltwoodgy@ed.gov,Male,Chile
612,Elbert,Blaw,eblawgz@omniture.com,Male,Argentina
613,Malachi,Lepere,mlepereh0@elegantthemes.com,Male,Mexico
614,Brnaby,Cersey,bcerseyh1@loc.gov,Male,Uzbekistan
615,Frank,Vynehall,fvynehallh2@prlog.org,Male,Indonesia
616,Cord,Cullingworth,ccullingworthh3@youtube.com,Male,Mexico
617,Rosina,Bullimore,rbullimoreh4@cmu.edu,Female,Senegal
618,Antoni,Tevelov,atevelovh5@marketwatch.com,Male,Ukraine
619,Lacy,Ridgeway,lridgewayh6@admin.ch,Female,Latvia
620,Deck,Kingzett,dkingzetth7@thetimes.co.uk,Male,China
621,Karoly,Castelyn,kcastelynh8@usgs.gov,Female,Greece
622,Esra,D'Alesio,edalesioh9@netlog.com,Male,Czech Republic
623,Donica,O'Giany,dogianyha@g.co,Female,Indonesia
624,Delila,Scolts,dscoltshb@cnbc.com,Female,France
625,Errick,Dybald,edybaldhc@domainmarket.com,Male,Poland
626,Quincy,Scardifeild,qscardifeildhd@quantcast.com,Male,China
627,Nobie,Joss,njosshe@reference.com,Male,China
628,Becca,Lockhart,blockharthf@ibm.com,Female,Russia
629,Carmelle,Surmeyers,csurmeyershg@oaic.gov.au,Female,China
630,Gavrielle,Jermy,gjermyhh@goo.gl,Female,France
631,Jecho,Etty,jettyhi@reverbnation.com,Male,China
632,Alberik,Siddens,asiddenshj@tuttocitta.it,Male,China
633,Ulrika,Roddam,uroddamhk@irs.gov,Female,Philippines
634,Lay,McCawley,lmccawleyhl@unc.edu,Male,Indonesia
635,Dacy,Perrat,dperrathm@php.net,Female,Mexico
636,Elston,Skitt,eskitthn@ask.com,Male,Panama
637,Lyman,Whitford,lwhitfordho@mediafire.com,Male,Costa Rica
638,Klaus,Dearnly,kdearnlyhp@amazon.com,Male,Libya
639,Scott,Row,srowhq@vinaora.com,Male,Indonesia
640,Arnold,Marchelli,amarchellihr@multiply.com,Male,Portugal
641,Washington,Fairbridge,wfairbridgehs@japanpost.jp,Male,Portugal
642,Linus,Fallow,lfallowht@gnu.org,Male,Serbia
643,Arne,Leedes,aleedeshu@washingtonpost.com,Male,Sweden
644,Jorry,Belly,jbellyhv@lycos.com,Female,Sudan
645,Parrnell,Yanne,pyannehw@google.com.br,Male,United States
646,Goldie,Winsbury,gwinsburyhx@youtube.com,Female,Ethiopia
647,Brose,Doucette,bdoucettehy@newyorker.com,Male,China
648,Florance,Bartolomeo,fbartolomeohz@cloudflare.com,Female,Palau
649,Derrek,Cutbirth,dcutbirthi0@umich.edu,Male,Tajikistan
650,Jaquenette,McCromley,jmccromleyi1@lycos.com,Female,Japan
651,Wilhelmine,Blankhorn,wblankhorni2@japanpost.jp,Female,Poland
652,Paxon,Tatersale,ptatersalei3@rakuten.co.jp,Male,Indonesia
653,Freddi,Braisher,fbraisheri4@lycos.com,Female,Iran
654,Ileane,McClaurie,imcclauriei5@amazon.co.jp,Female,China
655,Hattie,Joseff,hjoseffi6@samsung.com,Female,China
656,Kira,Pacitti,kpacittii7@samsung.com,Female,Slovenia
657,Lyman,Adamski,ladamskii8@weibo.com,Male,Democratic Republic of the Congo
658,Belva,Quene,bquenei9@dyndns.org,Female,Indonesia
659,Conny,Chessil,cchessilia@goo.ne.jp,Male,Indonesia
660,Susanna,Tansley,stansleyib@macromedia.com,Female,Russia
661,Valli,Haslam,vhaslamic@printfriendly.com,Female,Pakistan
662,Eveleen,Prendergast,eprendergastid@last.fm,Female,France
663,Lamar,Thurgood,lthurgoodie@blogtalkradio.com,Male,United States
664,August,Doret,adoretif@latimes.com,Male,Vietnam
665,Ado,Pedlingham,apedlinghamig@vk.com,Male,Mongolia
666,Brockie,Quene,bqueneih@quantcast.com,Male,Indonesia
667,Alaine,Pannett,apannettii@e-recht24.de,Female,Brazil
668,Kaleb,Arni,karniij@bloglines.com,Male,Portugal
669,Agata,Gallichiccio,agallichiccioik@walmart.com,Female,Japan
670,Cari,Mansour,cmansouril@cnbc.com,Female,Mexico
671,Hilario,Pagon,hpagonim@ucoz.ru,Male,Argentina
672,Marin,D'Adda,mdaddain@businesswire.com,Female,Thailand
673,Glynn,Trussell,gtrussellio@jigsy.com,Male,Poland
674,Sandye,Shirley,sshirleyip@shinystat.com,Female,Japan
675,Dinah,Ort,dortiq@tumblr.com,Female,Georgia
676,Randall,Gylle,rgylleir@miitbeian.gov.cn,Male,Lesotho
677,Mandy,Lawther,mlawtheris@ow.ly,Female,Armenia
678,Rahel,Bernholt,rbernholtit@marketwatch.com,Female,Russia
679,Cacilie,Moles,cmolesiu@alexa.com,Female,Japan
680,Fidela,Pohlak,fpohlakiv@fda.gov,Female,Belarus
681,Brittney,Lippiello,blippielloiw@booking.com,Female,Indonesia
682,Maury,Legister,mlegisterix@zimbio.com,Male,Lithuania
683,Caron,Thew,cthewiy@prnewswire.com,Female,Martinique
684,Neel,Zuanazzi,nzuanazziiz@dedecms.com,Male,Portugal
685,Jonell,Savery,jsaveryj0@yahoo.co.jp,Female,Brazil
686,Kylie,Paddick,kpaddickj1@accuweather.com,Male,Macedonia
687,Adam,Thraves,athravesj2@adobe.com,Male,Indonesia
688,Nelly,Veeler,nveelerj3@prweb.com,Female,France
689,Mike,Cortese,mcortesej4@hostgator.com,Male,Japan
690,Fayre,Stellino,fstellinoj5@fotki.com,Female,Azerbaijan
691,Katha,Ozelton,kozeltonj6@soundcloud.com,Female,China
692,Bili,Leatt,bleattj7@arstechnica.com,Female,China
693,Marcela,Sive,msivej8@mozilla.org,Female,Portugal
694,Mandy,Tomaszkiewicz,mtomaszkiewiczj9@ebay.com,Female,China
695,Fredi,Thewys,fthewysja@gizmodo.com,Female,Tunisia
696,Erda,Carolan,ecarolanjb@biglobe.ne.jp,Female,Argentina
697,Kiley,Iohananof,kiohananofjc@bloglovin.com,Male,Pakistan
698,Holden,Eaglestone,heaglestonejd@ustream.tv,Male,Brazil
699,Bram,Tavner,btavnerje@fastcompany.com,Male,Poland
700,Hiram,Chansonnau,hchansonnaujf@typepad.com,Male,Peru
701,Kienan,Coneybeer,kconeybeerjg@ustream.tv,Male,Philippines
702,Roslyn,Dreakin,rdreakinjh@jiathis.com,Female,Uganda
703,Sharleen,Allsupp,sallsuppji@flickr.com,Female,Indonesia
704,Aridatha,Kepe,akepejj@hibu.com,Female,Dominican Republic
705,Ginger,Toms,gtomsjk@constantcontact.com,Female,United States
706,Abner,MacTrustam,amactrustamjl@prnewswire.com,Male,Poland
707,Ody,Fuggles,ofugglesjm@businessinsider.com,Male,Argentina
708,Meghan,Dranfield,mdranfieldjn@senate.gov,Female,France
709,Ernesta,Antoinet,eantoinetjo@baidu.com,Female,Kuwait
710,Valle,Abbiss,vabbissjp@telegraph.co.uk,Male,Poland
711,Harmonie,Schlagh,hschlaghjq@marketwatch.com,Female,Indonesia
712,Elsa,Aronovitz,earonovitzjr@kickstarter.com,Female,Finland
713,Geri,Hardwin,ghardwinjs@nature.com,Male,France
714,Georgy,Kimbley,gkimbleyjt@github.io,Male,Portugal
715,Tomas,Mackstead,tmacksteadju@mashable.com,Male,South Korea
716,Algernon,Legister,alegisterjv@usnews.com,Male,Indonesia
717,Adrien,Lanon,alanonjw@cnet.com,Male,Honduras
718,Addi,Phillcock,aphillcockjx@rediff.com,Female,Russia
719,Arthur,Richold,aricholdjy@opera.com,Male,Guatemala
720,Titos,Jinks,tjinksjz@pcworld.com,Male,Morocco
721,Jess,Studart,jstudartk0@mapy.cz,Male,Peru
722,Belia,Gammill,bgammillk1@yellowpages.com,Female,United States
723,Rory,Arrington,rarringtonk2@bloomberg.com,Male,China
724,Garland,Goodfellowe,ggoodfellowek3@mysql.com,Female,Ireland
725,Raimondo,Rupke,rrupkek4@dailymail.co.uk,Male,Armenia
726,Ty,Mulvaney,tmulvaneyk5@de.vu,Male,Poland
727,Cort,Plain,cplaink6@reference.com,Male,Haiti
728,Yvor,Beardshall,ybeardshallk7@multiply.com,Male,Ukraine
729,Karin,Cone,kconek8@irs.gov,Female,Sierra Leone
730,Murdock,Bradly,mbradlyk9@hc360.com,Male,Iran
731,Pamela,Diess,pdiesska@bloglines.com,Female,France
732,Mollee,Dawtre,mdawtrekb@blog.com,Female,Central African Republic
733,Ede,Brewer,ebrewerkc@shinystat.com,Female,France
734,Tessa,Loynton,tloyntonkd@usa.gov,Female,Indonesia
735,Arron,Rothschild,arothschildke@desdev.cn,Male,Panama
736,Fawne,Plover,fploverkf@economist.com,Female,Ukraine
737,Hector,Soame,hsoamekg@admin.ch,Male,Ivory Coast
738,Lesley,Ribeiro,lribeirokh@marketwatch.com,Male,Azerbaijan
739,Arin,Kilius,akiliuski@photobucket.com,Male,Myanmar
740,Carolynn,Roj,crojkj@yelp.com,Female,Yemen
741,Ryan,Moiser,rmoiserkk@amazonaws.com,Male,China
742,Lotty,Treffry,ltreffrykl@mac.com,Female,Afghanistan
743,Myrwyn,Bovey,mboveykm@ed.gov,Male,North Korea
744,Hally,Casson,hcassonkn@ebay.com,Female,Thailand
745,Deina,Shillito,dshillitoko@comsenz.com,Female,Peru
746,Doralyn,Presley,dpresleykp@umn.edu,Female,China
747,Adriane,Lundon,alundonkq@networkadvertising.org,Female,China
748,Benoite,Maciaszek,bmaciaszekkr@cdbaby.com,Female,Portugal
749,Madeline,Grabb,mgrabbks@oracle.com,Female,China
750,Sigismundo,Gianettini,sgianettinikt@xrea.com,Male,France
751,Loretta,Erley,lerleyku@amazon.co.jp,Female,Colombia
752,Moritz,Litton,mlittonkv@toplist.cz,Male,Poland
753,Mellie,Cassella,mcassellakw@va.gov,Female,Philippines
754,Valentino,Jenkins,vjenkinskx@topsy.com,Male,France
755,Euphemia,Cluet,ecluetky@gnu.org,Female,Poland
756,Gabbie,Leveritt,gleverittkz@facebook.com,Male,Mongolia
757,Elden,Moscone,emosconel0@ycombinator.com,Male,China
758,Samantha,Heisham,sheishaml1@goo.gl,Female,China
759,Tommie,Perford,tperfordl2@hhs.gov,Female,France
760,Eliot,Pudner,epudnerl3@cbc.ca,Male,Brazil
761,Vernice,Grumell,vgrumelll4@behance.net,Female,China
762,Anett,Shaddock,ashaddockl5@marketwatch.com,Female,Indonesia
763,Michele,Vashchenko,mvashchenkol6@naver.com,Female,South Africa
764,Cyril,Antao,cantaol7@ask.com,Male,Chile
765,Ivar,Eskriet,ieskrietl8@oaic.gov.au,Male,Czech Republic
766,Wilmer,Krause,wkrausel9@addtoany.com,Male,Brazil
767,Lane,Frean,lfreanla@psu.edu,Male,China
768,Jackson,Rodger,jrodgerlb@google.es,Male,Cuba
769,Llewellyn,Keysel,lkeysellc@goodreads.com,Male,Portugal
770,Estevan,Lionel,elionelld@arstechnica.com,Male,Russia
771,Jessi,Vasiliev,jvasilievle@bizjournals.com,Female,Croatia
772,Lissie,MacKissack,lmackissacklf@oaic.gov.au,Female,China
773,Wanda,Clitsome,wclitsomelg@goo.ne.jp,Female,China
774,Neille,Oakton,noaktonlh@amazon.com,Female,Philippines
775,Fara,Lindop,flindopli@dedecms.com,Female,Russia
776,Inger,Bickersteth,ibickerstethlj@merriam-webster.com,Male,Sweden
777,Fidole,Titheridge,ftitheridgelk@youtu.be,Male,Canada
778,Cyndy,Palluschek,cpalluschekll@github.io,Female,Greece
779,Brittany,Kiley,bkileylm@google.de,Female,France
780,Laney,Speeding,lspeedingln@blogger.com,Male,Indonesia
781,Rriocard,Kitcher,rkitcherlo@cdbaby.com,Male,China
782,Delinda,Gorgler,dgorglerlp@blogtalkradio.com,Female,Indonesia
783,Corny,Perch,cperchlq@omniture.com,Male,Philippines
784,Gannie,Heath,gheathlr@mapquest.com,Male,Indonesia
785,Domini,Thring,dthringls@bravesites.com,Female,Thailand
786,Hertha,Kasparski,hkasparskilt@bandcamp.com,Female,China
787,Lion,Woolpert,lwoolpertlu@yellowpages.com,Male,Thailand
788,Gene,Borit,gboritlv@epa.gov,Female,Indonesia
789,Baxie,Dyka,bdykalw@mozilla.org,Male,France
790,Shawn,Zapater,szapaterlx@google.co.jp,Female,Czech Republic
791,Datha,Teaz,dteazly@is.gd,Female,Uganda
792,Dewey,Baff,dbafflz@shareasale.com,Male,Norway
793,Eugenius,Dominka,edominkam0@myspace.com,Male,Mexico
794,Aviva,Huot,ahuotm1@homestead.com,Female,Japan
795,Kennith,Puddan,kpuddanm2@stanford.edu,Male,Portugal
796,Frankie,Hayter,fhayterm3@histats.com,Male,China
797,Gladys,Haeslier,ghaeslierm4@uiuc.edu,Female,Indonesia
798,Rudy,Abramcik,rabramcikm5@unblog.fr,Male,Kosovo
799,Eugenio,Vales,evalesm6@cbsnews.com,Male,France
800,Charlton,O'Fergus,cofergusm7@mediafire.com,Male,Indonesia
801,Mano,Seymark,mseymarkm8@abc.net.au,Male,Indonesia
802,Jacquenetta,Wort,jwortm9@aboutads.info,Female,Colombia
803,Kay,Bosquet,kbosquetma@auda.org.au,Female,Madagascar
804,Wang,Heys,wheysmb@engadget.com,Male,China
805,Evonne,Harbage,eharbagemc@delicious.com,Female,Canada
806,Spense,Sterndale,ssterndalemd@cocolog-nifty.com,Male,Philippines
807,Halley,Runacres,hrunacresme@yellowbook.com,Female,China
808,Sandor,Remmers,sremmersmf@posterous.com,Male,Portugal
809,Truman,Bettam,tbettammg@blogtalkradio.com,Male,China
810,Emmalee,Nabbs,enabbsmh@cdbaby.com,Female,El Salvador
811,Germaine,Fend,gfendmi@auda.org.au,Female,Indonesia
812,Sax,Carette,scarettemj@ted.com,Male,Panama
813,Reginauld,Emmins,remminsmk@g.co,Male,Poland
814,Rana,Hammant,rhammantml@g.co,Female,Bulgaria
815,Agace,Cleef,acleefmm@hp.com,Female,Burkina Faso
816,Fayette,Dinnis,fdinnismn@weebly.com,Female,Canada
817,Woodie,Bardey,wbardeymo@miitbeian.gov.cn,Male,Nepal
818,Amabel,Kindleysides,akindleysidesmp@wordpress.com,Female,Spain
819,Moritz,Glascott,mglascottmq@java.com,Male,Philippines
820,Loralee,Maharry,lmaharrymr@techcrunch.com,Female,Mexico
821,Jamesy,Thormwell,jthormwellms@amazon.co.uk,Male,Poland
822,Ezechiel,Gerran,egerranmt@time.com,Male,Philippines
823,Donni,Hotchkin,dhotchkinmu@goo.gl,Female,Norway
824,Elizabeth,Coggeshall,ecoggeshallmv@spotify.com,Female,Brazil
825,Aleksandr,Harriss,aharrissmw@boston.com,Male,Croatia
826,Juline,Barzen,jbarzenmx@mtv.com,Female,Indonesia
827,Marlon,Neame,mneamemy@xinhuanet.com,Male,Japan
828,Wadsworth,Schwieso,wschwiesomz@hostgator.com,Male,Zambia
829,Helge,Stace,hstacen0@cloudflare.com,Female,Philippines
830,Issiah,Cornock,icornockn1@deliciousdays.com,Male,Georgia
831,Alonso,Dunbleton,adunbletonn2@so-net.ne.jp,Male,Poland
832,Gradeigh,Canadine,gcanadinen3@moonfruit.com,Male,Portugal
833,Dru,Stenners,dstennersn4@last.fm,Female,France
834,Malchy,MacPaike,mmacpaiken5@google.it,Male,Poland
835,Les,Gillyatt,lgillyattn6@earthlink.net,Male,Indonesia
836,Ardelis,Havoc,ahavocn7@npr.org,Female,Philippines
837,Obie,Watling,owatlingn8@walmart.com,Male,China
838,Darnall,Youthed,dyouthedn9@themeforest.net,Male,China
839,Elisa,Dacey,edaceyna@pen.io,Female,South Africa
840,Morey,Fusedale,mfusedalenb@opensource.org,Male,Oman
841,Erek,Brandsen,ebrandsennc@guardian.co.uk,Male,Poland
842,Amy,Geaves,ageavesnd@cafepress.com,Female,China
843,Jenda,Powder,jpowderne@dyndns.org,Female,Japan
844,Vanessa,Lortz,vlortznf@blogs.com,Female,China
845,Fionna,O'Canavan,focanavanng@theatlantic.com,Female,Saint Vincent and the Grenadines
846,Vallie,Irlam,virlamnh@google.com.br,Female,Indonesia
847,Nye,Solan,nsolanni@craigslist.org,Male,Ukraine
848,Elle,Gimber,egimbernj@epa.gov,Female,Ukraine
849,Albina,Ferronel,aferronelnk@ow.ly,Female,Czech Republic
850,Shea,Ledbury,sledburynl@sitemeter.com,Male,Sweden
851,Aila,Batchellor,abatchellornm@wordpress.org,Female,China
852,Cedric,Lofty,cloftynn@odnoklassniki.ru,Male,China
853,Sarge,Necolds,snecoldsno@yahoo.co.jp,Male,Finland
854,Alphonso,Fitzhenry,afitzhenrynp@unicef.org,Male,Aland Islands
855,Kincaid,Maddra,kmaddranq@angelfire.com,Male,Armenia
856,Trey,Bolles,tbollesnr@noaa.gov,Male,Philippines
857,Anderson,Shear,ashearns@alibaba.com,Male,Brazil
858,Nollie,Sambles,nsamblesnt@marketwatch.com,Male,France
859,Cissiee,Foulis,cfoulisnu@senate.gov,Female,China
860,Bentley,Piff,bpiffnv@netlog.com,Male,Guatemala
861,Ezri,Geering,egeeringnw@wsj.com,Male,France
862,Viki,Sayes,vsayesnx@cdbaby.com,Female,Indonesia
863,Filmer,M'Chirrie,fmchirrieny@google.com.br,Male,Brazil
864,Edeline,Woodsford,ewoodsfordnz@wordpress.org,Female,Georgia
865,Raoul,Drust,rdrusto0@oakley.com,Male,Germany
866,Daffy,Strongman,dstrongmano1@drupal.org,Female,Colombia
867,Saunders,Galliard,sgalliardo2@go.com,Male,France
868,Nikkie,Garden,ngardeno3@blogspot.com,Female,Ukraine
869,Mitchael,Rodliff,mrodliffo4@google.fr,Male,Russia
870,Roldan,Percifer,rpercifero5@ucla.edu,Male,Ukraine
871,Sherwood,Eagle,seagleo6@google.pl,Male,China
872,Jane,Guinery,jguineryo7@seesaa.net,Female,China
873,Glenden,Mattke,gmattkeo8@4shared.com,Male,China
874,Darin,Brinicombe,dbrinicombeo9@twitter.com,Male,Peru
875,Genni,Blancowe,gblancoweoa@wiley.com,Female,Bulgaria
876,Frasquito,Addeycott,faddeycottob@jigsy.com,Male,Uzbekistan
877,Dev,Rosenvasser,drosenvasseroc@arizona.edu,Male,China
878,Tobe,Bakhrushin,tbakhrushinod@seesaa.net,Male,Greece
879,Lamond,Szymoni,lszymonioe@princeton.edu,Male,Philippines
880,Giacomo,Winspeare,gwinspeareof@naver.com,Male,Indonesia
881,Lari,Braunds,lbraundsog@mail.ru,Female,Armenia
882,Alverta,Dradey,adradeyoh@boston.com,Female,France
883,Maximilianus,Fawloe,mfawloeoi@deviantart.com,Male,Taiwan
884,Myrlene,Fodden,mfoddenoj@goo.gl,Female,Philippines
885,Jeremias,Gauvain,jgauvainok@shutterfly.com,Male,Philippines
886,Tanner,Smeal,tsmealol@google.ca,Male,Kenya
887,Michele,Levicount,mlevicountom@cbc.ca,Male,Russia
888,Gregory,Durtnal,gdurtnalon@friendfeed.com,Male,China
889,Christos,Hardwidge,chardwidgeoo@nps.gov,Male,China
890,Brigid,Eastwell,beastwellop@last.fm,Female,Russia
891,Sigismondo,Berthe,sbertheoq@t-online.de,Male,Solomon Islands
892,Madeleine,Wontner,mwontneror@stumbleupon.com,Female,Brazil
893,Maggy,Jordi,mjordios@shop-pro.jp,Female,Tunisia
894,Leland,Stogill,lstogillot@geocities.jp,Female,China
895,Odella,Panks,opanksou@bing.com,Female,Turkmenistan
896,Corty,Ormrod,cormrodov@google.es,Male,Czech Republic
897,Aleta,Farthing,afarthingow@prweb.com,Female,Suriname
898,Ambros,Pound,apoundox@addtoany.com,Male,Philippines
899,Wash,Hallagan,whallaganoy@opensource.org,Male,Sweden
900,Biddie,Attenbrough,battenbroughoz@upenn.edu,Female,China
901,Meade,Harteley,mharteleyp0@seattletimes.com,Male,Indonesia
902,Deane,Wadsworth,dwadsworthp1@netlog.com,Female,France
903,Harriot,Elwel,helwelp2@multiply.com,Female,China
904,Clarke,Hadgkiss,chadgkissp3@trellian.com,Male,China
905,Renie,Thompstone,rthompstonep4@bluehost.com,Female,Myanmar
906,Conchita,Thornborrow,cthornborrowp5@google.fr,Female,France
907,Penni,Rogan,proganp6@jimdo.com,Female,Russia
908,Clifford,Roffe,croffep7@feedburner.com,Male,Thailand
909,Giselle,Cornewell,gcornewellp8@people.com.cn,Female,United States
910,Alysa,Lambal,alambalp9@usnews.com,Female,Russia
911,Daisey,Gairdner,dgairdnerpa@si.edu,Female,Jordan
912,Delaney,Brigg,dbriggpb@exblog.jp,Male,Portugal
913,Joyce,Claydon,jclaydonpc@jalbum.net,Female,Azerbaijan
914,Pammy,Himpson,phimpsonpd@telegraph.co.uk,Female,Poland
915,Madelaine,Van Ross,mvanrosspe@angelfire.com,Female,Spain
916,Gawain,Willeman,gwillemanpf@studiopress.com,Male,Philippines
917,Hirsch,Venables,hvenablespg@pinterest.com,Male,China
918,Grover,Cruft,gcruftph@stanford.edu,Male,Poland
919,Katina,Hamel,khamelpi@cisco.com,Female,Croatia
920,Modestine,Shilliday,mshillidaypj@artisteer.com,Female,China
921,Muriel,Gabbotts,mgabbottspk@qq.com,Female,Sweden
922,Colet,Maken,cmakenpl@who.int,Male,Syria
923,Melina,Coogan,mcooganpm@samsung.com,Female,Tajikistan
924,Nevins,Jeffers,njefferspn@amazon.com,Male,Colombia
925,Odilia,Litel,olitelpo@cafepress.com,Female,Russia
926,Luz,Lemary,llemarypp@google.com.hk,Female,Russia
927,Kendall,Tsar,ktsarpq@canalblog.com,Male,Argentina
928,Hollyanne,Walker,hwalkerpr@addtoany.com,Female,Japan
929,Artus,McNally,amcnallyps@delicious.com,Male,Indonesia
930,Windy,Gallone,wgallonept@instagram.com,Female,China
931,Farra,Lambird,flambirdpu@go.com,Female,Peru
932,Lind,Trustie,ltrustiepv@sakura.ne.jp,Male,Finland
933,Joell,Ebbage,jebbagepw@mayoclinic.com,Female,Iran
934,Ilaire,Hindshaw,ihindshawpx@ask.com,Male,Russia
935,Cynthea,Gritten,cgrittenpy@foxnews.com,Female,China
936,Mair,Meriott,mmeriottpz@ycombinator.com,Female,Russia
937,Priscilla,Hindhaugh,phindhaughq0@clickbank.net,Female,Philippines
938,Raddie,Mealand,rmealandq1@deliciousdays.com,Male,Spain
939,Russell,Osipenko,rosipenkoq2@latimes.com,Male,Germany
940,Marcos,Gillmor,mgillmorq3@washingtonpost.com,Male,China
941,Dolly,Nolte,dnolteq4@godaddy.com,Female,China
942,Sari,Burnup,sburnupq5@auda.org.au,Female,Ethiopia
943,Rahel,Sandercock,rsandercockq6@google.fr,Female,Armenia
944,Janel,O'Codihie,jocodihieq7@shutterfly.com,Female,China
945,Marjorie,Gommey,mgommeyq8@moonfruit.com,Female,China
946,Sancho,Croley,scroleyq9@clickbank.net,Male,Slovenia
947,Ingmar,Shortall,ishortallqa@sciencedaily.com,Male,Indonesia
948,Adaline,Mellem,amellemqb@ovh.net,Female,Colombia
949,Cirstoforo,Liddall,cliddallqc@histats.com,Male,China
950,Lindsay,Grishunin,lgrishuninqd@blogger.com,Female,Philippines
951,Immanuel,Hughlin,ihughlinqe@toplist.cz,Male,Philippines
952,Roth,Wetherell,rwetherellqf@google.co.uk,Male,Indonesia
953,Blaine,Culver,bculverqg@reddit.com,Male,France
954,Valaria,Robelin,vrobelinqh@ucla.edu,Female,United States
955,Kristoforo,McKinless,kmckinlessqi@dmoz.org,Male,Egypt
956,Elfie,Jelks,ejelksqj@amazon.co.uk,Female,United States
957,Marcelia,Pennacci,mpennacciqk@ocn.ne.jp,Female,France
958,Amaleta,Downing,adowningql@ow.ly,Female,Colombia
959,Lira,Sanchez,lsanchezqm@yahoo.com,Female,China
960,Christin,Frome,cfromeqn@narod.ru,Female,Philippines
961,Bink,Tuck,btuckqo@dagondesign.com,Male,Slovenia
962,Andrej,Burt,aburtqp@w3.org,Male,China
963,Guss,Preedy,gpreedyqq@reddit.com,Male,Colombia
964,Kendall,Neely,kneelyqr@opensource.org,Male,Indonesia
965,Morgun,Savory,msavoryqs@baidu.com,Male,Russia
966,Coriss,Gorner,cgornerqt@huffingtonpost.com,Female,China
967,Gerick,Camosso,gcamossoqu@1und1.de,Male,Canada
968,Sinclare,Grahl,sgrahlqv@jalbum.net,Male,China
969,Josselyn,Huebner,jhuebnerqw@youtube.com,Female,Luxembourg
970,Avigdor,Billett,abillettqx@ted.com,Male,China
971,Leora,Paramor,lparamorqy@comcast.net,Female,China
972,Freida,Mepsted,fmepstedqz@a8.net,Female,China
973,Uri,McAsgill,umcasgillr0@upenn.edu,Male,Zimbabwe
974,Braden,Dowers,bdowersr1@blog.com,Male,France
975,Arabelle,Kellington,akellingtonr2@twitpic.com,Female,France
976,Cicily,Latan,clatanr3@senate.gov,Female,Peru
977,Vilma,Sadler,vsadlerr4@microsoft.com,Female,Uganda
978,Moselle,Lenden,mlendenr5@ted.com,Female,Sweden
979,Edi,Snedker,esnedkerr6@reddit.com,Female,China
980,Clayborn,Chalcroft,cchalcroftr7@ox.ac.uk,Male,Philippines
981,Rozelle,Menhenitt,rmenhenittr8@bloglines.com,Female,Russia
982,Sharon,Polkinhorn,spolkinhornr9@tinypic.com,Female,Indonesia
983,Cordula,Ronisch,cronischra@seattletimes.com,Female,China
984,Sim,Normant,snormantrb@ezinearticles.com,Male,Nigeria
985,Denney,Brumble,dbrumblerc@japanpost.jp,Male,Norway
986,Fayre,Pirot,fpirotrd@ted.com,Female,Sweden
987,Cher,Corking,ccorkingre@nifty.com,Female,Ireland
988,Allin,Basili,abasilirf@i2i.jp,Male,China
989,Kit,Beynon,kbeynonrg@who.int,Female,Brazil
990,Franz,Lill,flillrh@amazon.co.jp,Male,France
991,Orion,Schooley,oschooleyri@loc.gov,Male,France
992,Raeann,Kilbey,rkilbeyrj@google.co.uk,Female,Russia
993,Conchita,Turn,cturnrk@constantcontact.com,Female,Costa Rica
994,Bat,Butchard,bbutchardrl@epa.gov,Male,Indonesia
995,Gates,Arundel,garundelrm@domainmarket.com,Female,Colombia
996,Roderich,Rubertelli,rrubertellirn@stanford.edu,Male,Russia
997,Odelle,De Laspee,odelaspeero@wordpress.org,Female,China
998,Munmro,Purchall,mpurchallrp@indiatimes.com,Male,China
999,Trudie,Petteford,tpettefordrq@bloglines.com,Female,Indonesia
1000,Ignacio,MacEllen,imacellenrr@hibu.com,Male,Russia
